Project 1
…
alldata %>% group_by(Hour.Count) %>% summarize(`25%` = quantile(Acceleration.Sum, 
    probs = 0.25), `50%` = quantile(Acceleration.Sum, probs = 0.5), 
    `75%` = quantile(Acceleration.Sum, probs = 0.75), n = n())

## # A tibble: 24 x 5
##    Hour.Count `25%` `50%` `75%`     n
##         <int> <dbl> <dbl> <dbl> <int>
##  1          1 0.207 0.209 0.273  9920
##  2          2 0.207 0.209 0.273  9920
##  3          3 0.207 0.209 0.273  9920
##  4          4 0.207 0.209 0.273  9920
##  5          5 0.207 0.209 0.273  9920
##  6          6 0.207 0.209 0.273  9920
##  7          7 0.207 0.209 0.273  9920
##  8          8 0.207 0.209 0.273  9920
##  9          9 0.207 0.209 0.273  9920
## 10         10 0.207 0.209 0.273  9920
## # … with 14 more rows
…
alldata %>% group_by(Hour.Count) %>% summarize(sd(Acceleration.Sum, 
    na.rm = T))

## # A tibble: 24 x 2
##    Hour.Count `sd(Acceleration.Sum, na.rm = T)`
##         <int>                             <dbl>
##  1          1                              1.22
##  2          2                              1.22
##  3          3                              1.22
##  4          4                              1.22
##  5          5                              1.22
##  6          6                              1.22
##  7          7                              1.22
##  8          8                              1.22
##  9          9                              1.22
## 10         10                              1.22
## # … with 14 more rows
…
